{
	"Item": {
		"name": "Bottle",
		"weight": 0.5,
		"bulk": 1.0,
		"description": "an empty bottle",
		"res_loc": "res/items/bottle",
		"invIcon": "bottle"
	},

	"AppliableItem": {
		"applyMessage": "you drink the contents of the %{name}"
	}
}

